^D:\C++\ASSIGNMENTS\BASIC EXCEPTION\PCH.CPP
D:\C++\ASSIGNMENTS\BASIC EXCEPTION\X64\DEBUG\BASIC EXCEPTION.PCH
D:\C++\ASSIGNMENTS\BASIC EXCEPTION\X64\DEBUG\VC141.PDB
D:\C++\ASSIGNMENTS\BASIC EXCEPTION\X64\DEBUG\VC141.IDB
D:\C++\ASSIGNMENTS\BASIC EXCEPTION\X64\DEBUG\PCH.OBJ
^D:\C++\ASSIGNMENTS\BASIC EXCEPTION\BASIC EXCEPTION.CPP
D:\C++\ASSIGNMENTS\BASIC EXCEPTION\X64\DEBUG\VC141.PDB
D:\C++\ASSIGNMENTS\BASIC EXCEPTION\X64\DEBUG\VC141.IDB
D:\C++\ASSIGNMENTS\BASIC EXCEPTION\X64\DEBUG\BASIC EXCEPTION.OBJ
