^D:\C++\ASSIGNMENTS\BASIC EXCEPTION\X64\DEBUG\BASIC EXCEPTION.OBJ|D:\C++\ASSIGNMENTS\BASIC EXCEPTION\X64\DEBUG\PCH.OBJ
D:\C++\ASSIGNMENTS\X64\DEBUG\BASIC EXCEPTION.ILK
D:\C++\ASSIGNMENTS\X64\DEBUG\BASIC EXCEPTION.EXE
D:\C++\ASSIGNMENTS\X64\DEBUG\BASIC EXCEPTION.PDB
