^D:\C++\ASSIGNMENTS\CATCHINGSUBCLASSEXCEPTIONS\PCH.CPP
D:\C++\ASSIGNMENTS\CATCHINGSUBCLASSEXCEPTIONS\X64\DEBUG\CATCHINGSUBCLASSEXCEPTIONS.PCH
D:\C++\ASSIGNMENTS\CATCHINGSUBCLASSEXCEPTIONS\X64\DEBUG\VC141.PDB
D:\C++\ASSIGNMENTS\CATCHINGSUBCLASSEXCEPTIONS\X64\DEBUG\VC141.IDB
D:\C++\ASSIGNMENTS\CATCHINGSUBCLASSEXCEPTIONS\X64\DEBUG\PCH.OBJ
^D:\C++\ASSIGNMENTS\CATCHINGSUBCLASSEXCEPTIONS\CATCHINGSUBCLASSEXCEPTIONS.CPP
D:\C++\ASSIGNMENTS\CATCHINGSUBCLASSEXCEPTIONS\X64\DEBUG\VC141.PDB
D:\C++\ASSIGNMENTS\CATCHINGSUBCLASSEXCEPTIONS\X64\DEBUG\VC141.IDB
D:\C++\ASSIGNMENTS\CATCHINGSUBCLASSEXCEPTIONS\X64\DEBUG\CATCHINGSUBCLASSEXCEPTIONS.OBJ
