^D:\C++\ASSIGNMENTS\CATCHINGSUBCLASSEXCEPTIONS\X64\DEBUG\CATCHINGSUBCLASSEXCEPTIONS.OBJ|D:\C++\ASSIGNMENTS\CATCHINGSUBCLASSEXCEPTIONS\X64\DEBUG\PCH.OBJ
D:\C++\ASSIGNMENTS\X64\DEBUG\CATCHINGSUBCLASSEXCEPTIONS.ILK
D:\C++\ASSIGNMENTS\X64\DEBUG\CATCHINGSUBCLASSEXCEPTIONS.EXE
D:\C++\ASSIGNMENTS\X64\DEBUG\CATCHINGSUBCLASSEXCEPTIONS.PDB
